id,groupName,groupDetails,fromDate,toDate,status ,createdBy,createdDate
1,Kuttanad Cleaning,Cleaning Kuttanad homes,8/20/2018,9/20/2018,Active,2,8/20/2018
2,Kottayam Doctors,Doctors in Kottayam District who can participate in medical cap planned on 25-08-2018,9/25/2018,9/25/2018,Closed,3,8/20/2018
